<svg xmlns="http://www.w3.org/2000/svg" width="87" height="87" viewBox="0 0 87 87">
  <g id="Group_4120" data-name="Group 4120" transform="translate(-479 -756)">
    <circle id="Ellipse_21" data-name="Ellipse 21" cx="43.5" cy="43.5" r="43.5" transform="translate(479 756)" fill="#ff8faa"/>
    <g id="Iconly_Light-Outline_Location" data-name="Iconly/Light-Outline/Location" transform="translate(505.703 779.648)">
      <g id="Location" transform="translate(0 0)">
        <path id="Combined-Shape" d="M16.8,1A16.881,16.881,0,0,1,33.6,17.926C33.6,29.4,20.45,40.7,16.8,40.7S0,29.4,0,17.926A16.881,16.881,0,0,1,16.8,1Zm0,3.054A13.825,13.825,0,0,0,3.054,17.926c0,9.731,11.451,19.211,13.744,19.716,2.293-.507,13.744-9.987,13.744-19.716A13.825,13.825,0,0,0,16.8,4.054Zm0,7.126A6.617,6.617,0,1,1,10.182,17.8,6.625,6.625,0,0,1,16.8,11.181Zm0,3.054A3.563,3.563,0,1,0,20.363,17.8,3.568,3.568,0,0,0,16.8,14.235Z" transform="translate(0.001 -1)" fill="#fff" fill-rule="evenodd"/>
      </g>
    </g>
  </g>
</svg>
