<svg xmlns="http://www.w3.org/2000/svg" width="82.577" height="83.131" viewBox="0 0 82.577 83.131">
  <g id="Group_4036" data-name="Group 4036" transform="translate(-539.963 24)">
    <path id="Path_1158" data-name="Path 1158" d="M605.078-24a1.8,1.8,0,0,1,.807,1.724c-.042,1.4-.012,2.81-.012,4.264,1.8-.573,3.532-1.128,5.268-1.679.257-.081.523-.134.775-.225a1.691,1.691,0,0,1,1.954.533c1.187,1.217,2.433,2.376,3.641,3.545a9.032,9.032,0,0,1,1.67-.653,2.838,2.838,0,0,1,3.265,2.326,6.22,6.22,0,0,1,.083,1.129q.006,17.736,0,35.471a4.355,4.355,0,0,1-.094,1.042,1,1,0,0,1-1.18.86,2.127,2.127,0,0,1-1.1-.869,2.161,2.161,0,0,1-.115-1.106q-.007-17.452,0-34.9c0-.216,0-.433,0-.649-.012-.987-.156-1.076-1.018-.59Q603.823-5.221,588.63,3.334a1.227,1.227,0,0,0-.727,1.21q.025,24.635.021,49.27c0,.244,0,.487,0,.731.009,1.063.185,1.167,1.13.635q12.587-7.09,25.171-14.186c1.715-.967,3.421-1.952,5.154-2.887a1.119,1.119,0,0,0,.664-1.151c-.029-1.893-.009-3.788-.011-5.682a1.32,1.32,0,0,1,.808-1.441,1.2,1.2,0,0,1,1.666,1.1c.045,2.244.05,4.491-.014,6.735a2.966,2.966,0,0,1-1.792,2.512q-10.762,6.037-21.5,12.112c-3.031,1.709-6.045,3.449-9.109,5.1a9.4,9.4,0,0,1-2.295.565,1.579,1.579,0,0,0-.494.134c-.512.333-1.007.693-1.508,1.043h-9.075c-.5-.35-1-.705-1.506-1.045a.677.677,0,0,0-.413-.147,4.077,4.077,0,0,1-2.682-.687q-15.008-8.469-30.034-16.908a3.747,3.747,0,0,1-2.121-3.653q.043-24.789.021-49.577a7.186,7.186,0,0,1,.084-1.29,2.835,2.835,0,0,1,3.271-2.313,9.218,9.218,0,0,1,1.671.655c1.228-1.193,2.479-2.384,3.7-3.607a1.521,1.521,0,0,1,1.735-.5c.3.11.626.158.934.255,1.736.548,3.47,1.1,5.264,1.672,0-1.452.03-2.858-.012-4.261A1.8,1.8,0,0,1,557.436-24h.972c.7.326,1.391.659,2.092.978,8.033,3.656,14.563,9,18.81,16.881.709,1.315,1.289,2.7,1.973,4.144.124-.279.21-.493.312-.7.822-1.668,1.537-3.4,2.491-4.989a38.137,38.137,0,0,1,16.251-14.534c1.244-.619,2.512-1.189,3.769-1.781ZM574.59,29.6c0-8.278-.01-16.556.017-24.834a1.5,1.5,0,0,0-.874-1.534Q560.5-4.182,547.3-11.651c-1.315-.742-2.629-1.487-3.95-2.218-.672-.372-.836-.266-.864.515,0,.108,0,.216,0,.325q0,24.915-.016,49.831a1.378,1.378,0,0,0,.817,1.388q15.027,8.434,30.033,16.906c1.107.624,1.274.53,1.274-.738Q574.589,41.981,574.59,29.6Zm2.389-34.944C572.8-12.671,566.7-17.565,559.1-20.943c0,1.132.051,2.129-.018,3.118a1.116,1.116,0,0,0,.828,1.248c1.378.612,2.732,1.281,4.075,1.968a1.113,1.113,0,0,1,.534,1.571,1.174,1.174,0,0,1-1.623.6c-.274-.112-.537-.251-.8-.386a61.4,61.4,0,0,0-11.177-4.422,1.209,1.209,0,0,0-.945.07c-.946.8-1.829,1.674-2.813,2.595.464.276.713.432.968.576,8.856,4.993,17.727,9.959,26.554,15a7.126,7.126,0,0,0,4.72.689,51.819,51.819,0,0,0-3.579-4.354c-2-1.965-4.162-3.76-6.277-5.6-.539-.469-.915-.932-.563-1.664a1.179,1.179,0,0,1,1.959-.373C572.937-8.7,574.9-7.054,576.979-5.339Zm8.436,50.917V15.34H577.1V45.578ZM583.187,1.525l.205.219a7.107,7.107,0,0,0,4.437-.731C594.935-3.078,602.1-7.071,609.238-11.1l6.145-3.467c-.928-.859-1.788-1.6-2.577-2.407a1,1,0,0,0-1.207-.284c-1.953.691-3.949,1.273-5.871,2.039a51.228,51.228,0,0,0-18.31,11.776C585.911-1.881,584.592-.136,583.187,1.525Zm20.227-22.469c-7.635,3.417-13.743,8.3-17.924,15.706,1.925-1.624,3.625-3.171,5.441-4.567a57.733,57.733,0,0,1,11.8-6.86c.272-.121.641-.422.655-.658C603.452-18.476,603.415-19.635,603.415-20.945ZM585.478,7.411c0-.93.038-1.769-.027-2.6a.81.81,0,0,0-.572-.544c-2.425-.038-4.851-.034-7.276-.005-.189,0-.527.263-.536.418-.052.9-.025,1.807-.025,2.73ZM577.034,53.5c0,.9.013,1.707,0,2.516-.011.481.187.687.669.685,2.375-.008,4.75.01,7.124-.027a.832.832,0,0,0,.625-.505c.068-.876.03-1.76.03-2.669Zm8.418-43.529h-8.363v2.838h8.363Zm0,38.16h-8.363v2.836h8.363Z" fill="#fff"/>
    <path id="Path_1159" data-name="Path 1159" d="M777.722,91.664c0-1.217.022-2.435-.008-3.651a1.537,1.537,0,0,1,.856-1.514q11.135-6.36,22.26-12.736c1.085-.62,2.011-.063,2.019,1.2.015,2.353-.026,4.707.02,7.059a1.9,1.9,0,0,1-1.084,1.887q-8.228,4.671-16.427,9.394-2.562,1.467-5.125,2.931c-1.765,1.01-2.51.569-2.511-1.49Q777.721,93.205,777.722,91.664Zm2.446,1.634a1.109,1.109,0,0,0,.307-.044q9.762-5.579,19.516-11.171c.168-.1.389-.3.392-.455.029-1.549.018-3.1.018-4.662a1.106,1.106,0,0,0-.265.037q-9.792,5.6-19.576,11.214a.793.793,0,0,0-.374.54C780.155,90.259,780.168,91.764,780.168,93.3Z" transform="translate(-186.281 -76.399)" fill="#fff"/>
    <path id="Path_1160" data-name="Path 1160" d="M724.923,196.719c0-2.245,0-4.489,0-6.734a3.334,3.334,0,0,1,.1-.879,1.2,1.2,0,0,1,2.287-.021,3.523,3.523,0,0,1,.107.959q.01,6.734,0,13.468a3.533,3.533,0,0,1-.09.88,1,1,0,0,1-1.177.865,2.424,2.424,0,0,1-1.117-.86c-.157-.187-.108-.569-.108-.863C724.92,201.262,724.923,198.991,724.923,196.719Z" transform="translate(-144.917 -166.307)" fill="#fff"/>
  </g>
</svg>
