<svg xmlns="http://www.w3.org/2000/svg" width="1039.411" height="2538.106" viewBox="0 0 1039.411 2538.106">
  <path id="Path_1170" data-name="Path 1170" d="M438.239,211.027q.011,215.987.023,431.973,0,632.481-.015,1264.979-.011,180.847-.218,361.686.011,234.724.007,469.446c-.015,8.606,2.431,10.5,10.349,9.928a231.719,231.719,0,0,1,29.046-.023c6.332.335,9.115-1.173,8.428-8.067-.618-6.185-.126-12.475-.126-18.722V2304.5c3.417-1.274,4.918,1.337,6.746,2.683,33.385,24.473,62.854,53.38,91.955,82.583,33.745,33.861,66.552,68.637,97.216,105.36,9.115,10.913,20.958,14.876,34.432,11.185,14.4-3.939,21.426-14.67,24.3-29.069,16.236-81.341,34.37-162.2,63.487-240.136,6.769-18.11,14.822-35.6,25.95-51.659,8.545-12.327,19.917-18.276,34.535-19.3,24.543-1.72,48.721,1.492,72.624,6.222,76.306,15.087,150.73,37.028,224,62.948,13.569,4.8,25.967,3.674,36.426-6.535,10.795-10.528,12.14-23.442,7.269-37.183-13.232-37.31-25.036-75.071-35.745-113.17-13.319-47.431-26.2-94.972-32.018-144.07-1.772-14.929-2.406-29.906-.593-44.844,1.376-11.373,7.034-20.433,16.329-27.263,22.958-16.877,49.252-26.781,75.884-35.677,70.812-23.636,143.147-41.467,216.624-54.567,16.048-2.86,26.24-11.4,32.283-25.905v-14.991c-4-6.879-7.425-14.016-13.726-19.418a1820.544,1820.544,0,0,1-144.4-137.753c-21.574-23.028-41.757-47.189-58.562-74.125-13.187-21.128-13.446-41.217.1-62.1,7.995-12.327,16.038-24.583,25.4-35.9,51.934-62.838,111.5-118.062,172.623-171.653,7.949-6.965,14.782-14.039,18.573-23.873V1191.3c-5.831-12.249-13.922-21.677-28.2-24.388-58.867-11.194-117.2-24.725-174.756-41.421-37.169-10.786-73.915-22.59-108.278-40.952-21.066-11.256-32.61-27.507-31.038-51.878.906-14.008.991-28.188,3.274-41.983,13.725-83,38.24-163.158,65.612-242.474,4.949-14.328,5.144-27.037-5.5-38.207-11.005-11.545-24.419-12.014-38.9-6.988-66.638,23.137-134.15,43.3-203.1,58.335-30.212,6.59-60.672,11.945-91.908,10.076-14.711-.875-26.052-6.831-34.652-19.057-11.231-15.994-19.315-33.5-26.029-51.629-29.188-78.894-48.245-160.476-63.683-242.982C737.271,441.7,723.749,430,707.405,430.191c-12.335.148-20.762,6.964-28.469,15.75C625.127,507.3,569.65,567.041,506.79,619.424c-6.331,5.269-13.068,10.053-21.059,16.158V623.3q0-200.556-.03-401.1c0-3.728-.368-7.448-.571-11.171Zm272.052,985.964-.883,1.282-.563-.7,1.2-.875a30.758,30.758,0,0,1,1.352-5.261c40.959-90.994,86.821-179.464,134.353-267.2,21.738-40.123,53.084-65.363,94.207-81.856,36.792-14.758,74.2-27.514,112.083-39.021,23.747-7.215,47.628-13.991,73.039-21.425-6.075,21-11.451,40.365-17.3,59.6-15.212,50.066-30.422,100.132-53.442,147.383-12.835,26.351-30.008,47.7-56.3,62.893-79.449,45.924-161.2,87.266-244.177,126.255-14.32,6.739-28.3,14.345-43.57,18.925Zm-.218,543.593c2.344-1.414,4.134.29,6.02,1.141,98.513,44.828,195.541,92.51,288.661,147.884,17.251,10.263,29.945,24.146,39.779,41.178,26.569,45.986,41.8,96.442,57.616,146.634,7.988,25.35,15.039,51,22.98,78.089-17.306-4.972-32.837-9.294-48.291-13.9-53.764-16.018-107.542-32-158.287-56.452-26.084-12.57-47.15-29.541-62.206-55.616-46.321-80.238-88.249-162.656-127.529-246.475-6.573-14.023-14.085-27.67-18.525-42.639l-1.219-.948c.281-.078.618-.28.852-.2.851.281.889.767.145,1.3ZM485.241,1469.308v-181.8c0-32.8.2-65.6-.148-98.388-.078-7.669,1.509-9.474,9.427-7.591,16.391,3.9,32.837,7.521,48.329,14.211,6.161,2.657,9.88,1.916,13.884-3.619,7.668-10.6,16.047-20.69,24.137-30.993,21.371-27.225,42.664-54.521,64.167-81.645,9-11.366,14.665-12.194,24.3-4.87,8.27,6.285,5.37,13.617,2.392,21.035-17.76,44.235-35.426,88.5-53.4,132.641-2.267,5.574-1.711,8.849,3.211,12.577,12.985,9.825,24.194,21.636,35.449,33.346,5.1,5.308,7.872,14.938,14.978,15.6,6.683.625,13.96-4.393,20.885-7.161q60.352-24.082,120.66-48.267c11.482-4.58,18.08-1.548,22.355,9.248,3.524,8.9-2.08,13.421-7.779,17.907-37.965,29.922-75.9,59.893-114.146,89.454-4.714,3.642-5.385,6.472-3.33,11.5a240.589,240.589,0,0,1,16.61,62.979c.619,5.245,4.23,6.628,8.341,7.284,9.512,1.51,19.081,2.7,28.624,4.058q59.55,8.453,119.094,16.954c8.481,1.211,12.428,6.574,12.57,14.844.147,8.56-4.652,13.8-13.437,15.039q-73.4,10.365-146.813,20.652c-5.158.711-7.746,2.978-8.41,8.185a240.192,240.192,0,0,1-16.4,62.086c-2.127,5.128-1.165,8.184,3.291,11.6,19.556,14.978,38.841,30.328,58.2,45.564s38.857,30.32,57.993,45.843c8.675,7.036,9.1,11.6,3.744,20.106-5.128,8.137-10.226,9.215-21.95,4.518q-66.387-26.627-132.782-53.248c-3.533-1.414-7.012-4.244-10.771.516a310.9,310.9,0,0,1-48.049,48.409c-3.479,2.83-3.806,5.409-2.055,9.6,7.793,18.65,15.149,37.488,22.668,56.255,10.881,27.14,21.668,54.31,32.7,81.4,2.8,6.87,2.244,12.381-3.681,17.391-9.692,8.192-16.266,6.731-26.193-5.948-29.016-37.068-58.219-73.994-87.064-111.192-3.821-4.924-6.494-6.457-12.88-3.845a237.023,237.023,0,0,1-47.393,14.062c-11.327,2.056-11.319,2.142-11.319-9.841Zm51.575,367.609c2.267,2.706,3.1,3.588,3.814,4.573,58.9,81.817,114.6,165.745,165.433,252.83,7.815,13.383,16.413,26.546,21.048,41.585,7.833,25.4,5.534,51.27,2.736,77.026-4.579,42.225-13.828,83.614-23.511,124.9-5.292,22.588-11.023,45.078-16.924,69.121-48.338-50.376-96.481-98.529-136.423-153.926-13.134-18.212-26.249-36.832-30.846-59.295-3.761-18.371-2.97-37.28-2.814-55.969.641-79.012,5.089-157.849,11.3-236.6,1.629-20.737,3.966-41.4,6.186-64.244Zm1.653-738.635c-3.026-2.11-2.369-4.174-2.541-5.918-5.612-55.279-9.934-110.66-12.633-166.143-2.5-51.442-3.986-102.906-3.837-154.457.087-29.445,10.584-53.959,26.577-77.19C586.98,635.112,637.8,584.266,687.773,532.7c.268-.274,1.018-.078,2.2-.133,17.415,72.313,37.34,144.2,42.147,218.992,1.687,26.3-3.158,50.824-16.618,74.415-45.5,79.738-95.886,156.286-148.078,231.718C558.037,1071.237,548.281,1084.533,538.469,1098.282Zm270.979,471.376-.031-2.784c4.51-.374,9.03-.664,13.523-1.132,95.5-9.811,191.266-14.978,287.248-16.034,17.133-.186,34.5-.827,51.34,2.76,25.677,5.471,46.681,20.542,67.207,35.8,52.309,38.872,98.771,84.343,145.272,129.747.329.33.228,1.1.313,1.69-.453.414-.836,1.07-1.352,1.2-69.623,17.361-139.051,35.792-210.94,41.562-27.813,2.227-53.921-1.44-79.2-15.946-61.228-35.137-120.821-72.773-179.424-112.037-31.606-21.177-62.661-43.184-93.96-64.826Zm-.008-199.567c.642-3.721,3.284-4.549,5.168-5.9,80.23-57.452,162.312-112.09,247.654-161.7,15.557-9.043,30.62-19.51,48.363-24.137,24.677-6.426,49.651-3.87,74.486-1.033,47.525,5.44,94,16.43,140.45,27.413,16.476,3.893,32.837,8.263,50.972,12.843-55.638,52.755-107.847,106.245-170.67,147.469-15.116,9.927-31.015,19.441-49.493,20.927-18.652,1.5-37.474,1.4-56.21,1.226-81.6-.765-162.994-5.627-244.288-12.436-15.466-1.3-30.888-3.1-46.435-4.677Z" transform="translate(-438.029 -211.027)" fill="#848484" opacity="0.08"/>
</svg>
